                ESFIHA MANIA
           Av. Parada Pinto, 1700
---------------------------------------------
              14/09/2017 21:16
*********************************************
             FECHAMENTO DO CAIXA
*********************************************
             Formas de Pagamento
Descricao                             Total  

------------------------------------------------

Fechado por: Gerente 
--